<?xml version="1.0" encoding="utf-8"?>
<!-- Generator: Adobe Illustrator 15.0.0, SVG Export Plug-In . SVG Version: 6.00 Build 0)  -->
<!DOCTYPE svg PUBLIC "-//W3C//DTD SVG 1.1//EN" "http://www.w3.org/Graphics/SVG/1.1/DTD/svg11.dtd">
<svg version="1.1" id="Layer_1" xmlns="http://www.w3.org/2000/svg" xmlns:xlink="http://www.w3.org/1999/xlink" x="0px" y="0px"
	 width="43px" height="43px" viewBox="0 0 43 43" enable-background="new 0 0 43 43" xml:space="preserve">
<g>
	<rect y="22" fill="#6CA301" width="43" height="2"/>
	<rect y="41" fill="#6CA301" width="43" height="2"/>
	<rect y="23" fill="#6CA301" width="2" height="19"/>
	<rect x="5" fill="#6CA301" width="2" height="16"/>
	<rect x="8" y="34" fill="#6CA301" width="2" height="9"/>
	<rect x="17" y="34" fill="#6CA301" width="2" height="9"/>
	<rect x="13" fill="#6CA301" width="2" height="16"/>
	<rect x="19" y="11" fill="#6CA301" width="2" height="12"/>
	<rect x="29" y="5" fill="#6CA301" width="2" height="13"/>
	<rect x="35" y="5" fill="#6CA301" width="2" height="13"/>
	<rect x="23" y="11" fill="#6CA301" width="2" height="12"/>
	<rect x="41" y="23" fill="#6CA301" width="2" height="19"/>
	<rect x="5" fill="#6CA301" width="9" height="2"/>
	<rect x="5" y="15" fill="#6CA301" width="10" height="2"/>
	
		<rect x="4.087" y="16.434" transform="matrix(0.954 0.2998 -0.2998 0.954 6.1467 -0.6178)" fill="#6CA301" width="2" height="6.58"/>
	<polygon fill="#6CA301" points="21.789,32.097 14.232,25.657 13.861,25.354 13.49,25.657 5.934,32.097 7.231,33.619 13.861,27.968 
		20.491,33.619 	"/>
	
		<rect x="28.087" y="16.434" transform="matrix(0.954 0.2998 -0.2998 0.954 7.2505 -7.8124)" fill="#6CA301" width="2" height="6.58"/>
	
		<rect x="36.087" y="16.434" transform="matrix(-0.954 0.2998 -0.2998 -0.954 78.3809 27.4229)" fill="#6CA301" width="2" height="6.58"/>
	
		<rect x="14.087" y="16.434" transform="matrix(-0.954 0.2998 -0.2998 -0.954 35.3927 34.018)" fill="#6CA301" width="2" height="6.58"/>
	<rect x="19" y="11" fill="#6CA301" width="6" height="2"/>
	<rect x="30" y="5" fill="#6CA301" width="6" height="2"/>
	<rect x="30" y="16" fill="#6CA301" width="6" height="2"/>
	<rect x="8" y="34" fill="#6CA301" width="11" height="2"/>
	<rect x="25" y="27" fill="#6CA301" width="2" height="5"/>
	<rect x="31" y="27" fill="#6CA301" width="2" height="5"/>
	<rect x="37" y="27" fill="#6CA301" width="2" height="5"/>
	<rect x="25" y="33" fill="#6CA301" width="2" height="5"/>
	<rect x="31" y="33" fill="#6CA301" width="2" height="5"/>
	<rect x="37" y="33" fill="#6CA301" width="2" height="5"/>
</g>
</svg>
