<?xml version="1.0" encoding="utf-8"?>
<!-- Generator: Adobe Illustrator 15.0.0, SVG Export Plug-In . SVG Version: 6.00 Build 0)  -->
<!DOCTYPE svg PUBLIC "-//W3C//DTD SVG 1.1//EN" "http://www.w3.org/Graphics/SVG/1.1/DTD/svg11.dtd">
<svg version="1.1" id="Layer_1" xmlns="http://www.w3.org/2000/svg" xmlns:xlink="http://www.w3.org/1999/xlink" x="0px" y="0px"
	 width="49px" height="27px" viewBox="0 0 49 27" enable-background="new 0 0 49 27" xml:space="preserve">
<path fill="#6CA301" d="M44.648,2.287c-1.288-0.169-3.301-0.37-5.57-0.37c-7.882,0-13.702,2.356-16.832,6.815
	c-0.096,0.136-0.175,0.279-0.24,0.426C18.774,7.295,14.529,6.3,9.373,6.3c-4.064,0-7.197,0.611-7.329,0.638
	C1.1,7.125,0.347,7.837,0.108,8.771c-0.172,0.672-0.054,1.373,0.301,1.943c1.14,2.928,7.06,16.348,19.331,16.348
	c2.288,0,4.657-0.49,7.04-1.458c0.408-0.166,0.76-0.434,1.025-0.771c0.793-0.399,1.326-1.198,1.373-2.105
	c0.004-0.079,0.003,0.086,0.006,0.008C29.279,22.744,29.372,23,29.47,23c0.015,0,0.029,0,0.044,0
	C41.465,22,47.408,9.577,48.571,6.707c0.257-0.399,0.398-0.987,0.398-1.474C48.97,2.972,47.063,2.603,44.648,2.287z M26.682,22.599
	c-4.625-6.14-11.922-10.415-19.514-11.242c3.4,0.602,6.707,1.918,9.661,3.784c3.536,2.054,6.655,4.848,9.011,8.146
	c-2.196,0.892-4.227,1.274-6.1,1.274c-11.444,0-16.912-14.343-17.139-15.112L2.53,9.39c0,0,2.978-0.59,6.843-0.59
	c7.076,0,17.127,1.979,17.323,13.185C26.696,22.183,26.692,22.389,26.682,22.599z M46.397,5.172
	c-0.234,0.757-5.776,14.657-16.927,14.85c-0.163-2.395-0.791-4.493-1.865-6.275c1.396-1.165,2.895-2.208,4.481-3.098
	c2.982-1.82,6.309-3.087,9.717-3.637c-5.287,0.495-10.456,2.664-14.7,5.978c-0.764-1.069-1.701-2.012-2.811-2.821
	c3.298-4.698,9.703-5.751,14.785-5.751c4.133,0,7.392,0.697,7.392,0.697L46.397,5.172z"/>
</svg>
