<?xml version="1.0" encoding="utf-8"?>
<svg xmlns="http://www.w3.org/2000/svg"
	xmlns:xlink="http://www.w3.org/1999/xlink"
	width="20px" height="14px" viewBox="0 0 20 14">
<path fillRule="evenodd" d="M 13.48 6.8C 13.48 6.8 19.03 1.68 19.03 1.68 19.03 1.68 19.03 12 19.03 12 19.03 12 13.48 6.8 13.48 6.8ZM 1.21 0.06C 1.21 0.06 17.84 0.06 17.84 0.06 17.84 0.06 9.53 8.17 9.53 8.17 9.53 8.17 1.21 0.06 1.21 0.06ZM 0.02 11.98C 0.02 11.98 0.02 1.59 0.02 1.59 0.02 1.59 5.61 6.8 5.61 6.8 5.61 6.8 0.02 11.98 0.02 11.98ZM 9.53 10.57C 9.53 10.57 12.23 7.88 12.23 7.88 12.23 7.88 17.84 13.69 17.84 13.69 17.84 13.69 1.21 13.69 1.21 13.69 1.21 13.69 6.84 7.88 6.84 7.88 6.84 7.88 9.53 10.57 9.53 10.57Z" fill="rgb(129,177,0)"/></svg>