<?xml version="1.0" encoding="utf-8"?>
<!-- Generator: Adobe Illustrator 15.0.0, SVG Export Plug-In . SVG Version: 6.00 Build 0)  -->
<!DOCTYPE svg PUBLIC "-//W3C//DTD SVG 1.1//EN" "http://www.w3.org/Graphics/SVG/1.1/DTD/svg11.dtd">
<svg version="1.1" id="Layer_1" xmlns="http://www.w3.org/2000/svg" xmlns:xlink="http://www.w3.org/1999/xlink" x="0px" y="0px"
	 width="18px" height="22px" viewBox="0 0 18 22" enable-background="new 0 0 18 22" xml:space="preserve">
<g>
	<path fill="#81B200" d="M17.308,6.465c0.36-0.438,0.553-0.994,0.553-1.63c0-1.872-1.932-3.108-3.586-3.599
		c-0.998-0.294-3.506-0.427-5.55-0.427c-1.329,0-3.732,0.056-4.902,0.435c-2.444,0.792-3.683,2-3.683,3.591
		c0,0.629,0.188,1.18,0.541,1.615C0.247,7.054,0.14,7.648,0.14,8.089c0,0.649,0.196,1.213,0.565,1.653
		c-0.454,0.614-0.565,1.223-0.565,1.677c0,0.649,0.196,1.213,0.565,1.655C0.251,13.688,0.14,14.297,0.14,14.75
		c0,0.668,0.207,1.242,0.596,1.688C0.356,16.998,0.14,17.66,0.14,18.305c0,1.672,1.325,2.885,3.152,2.885h11.415
		c1.827,0,3.151-1.213,3.151-2.885c0-0.596-0.217-1.219-0.604-1.77c0.391-0.459,0.604-1.055,0.604-1.729
		c0-0.586-0.203-1.164-0.586-1.691c0.381-0.449,0.586-1.027,0.586-1.68c0-0.575-0.202-1.149-0.584-1.673
		c0.379-0.447,0.584-1.023,0.584-1.673C17.858,7.525,17.671,6.974,17.308,6.465z M14.707,19.863H3.292
		c-0.43,0-1.828-0.219-1.828-1.559c0-0.644,0.408-1.322,1.117-1.767h12.863c0.682,0.478,1.09,1.203,1.09,1.767
		C16.534,19.645,15.135,19.863,14.707,19.863z M15.627,16.008H2.495c-0.684-0.178-1.031-0.604-1.031-1.25
		c0-0.572,0.33-1.074,0.999-1.523h13.071c0.645,0.474,1,1.017,1,1.543C16.534,15.533,16.065,15.863,15.627,16.008z M15.505,12.676
		l-0.105,0.027H2.646l-0.139-0.035c-0.692-0.176-1.044-0.596-1.044-1.248c0-0.568,0.324-1.063,0.981-1.509h13.113
		c0.629,0.468,0.976,1.001,0.976,1.516C16.534,12.078,16.187,12.498,15.505,12.676z M8.724,2.135c2.27,0,4.443,0.157,5.174,0.374
		c1.312,0.387,2.638,1.311,2.638,2.327c0,0.629-0.313,1.028-0.961,1.221L15.431,6.1H2.571L2.438,6.06
		C1.783,5.871,1.464,5.47,1.464,4.835c0-0.952,0.932-1.736,2.767-2.329C4.946,2.274,6.626,2.135,8.724,2.135z M15.505,9.335
		l-0.176,0.046H2.684L2.508,9.337C1.815,9.161,1.464,8.741,1.464,8.088c0-0.546,0.303-1.024,0.914-1.459h13.251
		c0.583,0.454,0.905,0.968,0.905,1.46C16.534,8.737,16.188,9.156,15.505,9.335z"/>
</g>
</svg>
